…
.data: A data frame, data frame extension (e.g. a tibble), or a lazy data frame (e.g. from dbplyr or dtplyr).
...	: <data-masking> Expressions that return a logical value, and are defined in terms of the variables in .data. If multiple expressions are included, they are combined with the & operator. Only rows for which all conditions evaluate to TRUE are kept.
```
- 

```r
starwars1 = filter(starwars, species == "Human", height >= 100)
starwars1
```

```
## # A tibble: 31 × 14
##    name        height  mass hair_…¹ skin_…² eye_c…³ birth…⁴ sex   gender homew…⁵
##    <chr>        <int> <dbl> <chr>   <chr>   <chr>     <dbl> <chr> <chr>  <chr>  
##  1 Luke Skywa…    172    77 blond   fair    blue       19   male  mascu… Tatooi…
##  2 Darth Vader    202   136 none    white   yellow     41.9 male  mascu… Tatooi…
##  3 Leia Organa    150    49 brown   light   brown      19   fema… femin… Aldera…
##  4 Owen Lars      178   120 brown,… light   blue       52   male  mascu… Tatooi…
##  5 Beru White…    165    75 brown   light   blue       47   fema… femin… Tatooi…
##  6 Biggs Dark…    183    84 black   light   brown      24   male  mascu… Tatooi…
##  7 Obi-Wan Ke…    182    77 auburn… fair    blue-g…    57   male  mascu… Stewjon
##  8 Anakin Sky…    188    84 blond   fair    blue       41.9 male  mascu… Tatooi…
##  9 Wilhuff Ta…    180    NA auburn… fair    blue       64   male  mascu… Eriadu 
## 10 Han Solo       180    80 brown   fair    brown      29   male  mascu… Corell…
## # … with 21 more rows, 4 more variables: species <chr>, films <list>,
## #   vehicles <list>, starships <list>, and abbreviated variable names
## #   ¹​hair_color, ²​skin_color, ³​eye_color, ⁴​birth_year, ⁵​homeworld
```

```r
# Equivalente a:
starwars[starwars$species == "Human" & starwars$height >= 100, ]
```

```
## # A tibble: 39 × 14
##    name        height  mass hair_…¹ skin_…² eye_c…³ birth…⁴ sex   gender homew…⁵
##    <chr>        <int> <dbl> <chr>   <chr>   <chr>     <dbl> <chr> <chr>  <chr>  
##  1 Luke Skywa…    172    77 blond   fair    blue       19   male  mascu… Tatooi…
##  2 Darth Vader    202   136 none    white   yellow     41.9 male  mascu… Tatooi…
##  3 Leia Organa    150    49 brown   light   brown      19   fema… femin… Aldera…
##  4 Owen Lars      178   120 brown,… light   blue       52   male  mascu… Tatooi…
##  5 Beru White…    165    75 brown   light   blue       47   fema… femin… Tatooi…
##  6 Biggs Dark…    183    84 black   light   brown      24   male  mascu… Tatooi…
##  7 Obi-Wan Ke…    182    77 auburn… fair    blue-g…    57   male  mascu… Stewjon
##  8 Anakin Sky…    188    84 blond   fair    blue       41.9 male  mascu… Tatooi…
##  9 Wilhuff Ta…    180    NA auburn… fair    blue       64   male  mascu… Eriadu 
## 10 Han Solo       180    80 brown   fair    brown      29   male  mascu… Corell…
## # … with 29 more rows, 4 more variables: species <chr>, films <list>,
## #   vehicles <list>, starships <list>, and abbreviated variable names
## #   ¹​hair_color, ²​skin_color, ³​eye_color, ⁴​birth_year, ⁵​homeworld
```
…
.data: A data frame, data frame extension (e.g. a tibble), or a lazy data frame (e.g. from dbplyr or dtplyr).
... : <data-masking> Variables, or functions of variables. Use desc() to sort a variable in descending order.
```
- Se for inserido mais de um nome de variável, organiza de acordo com a 1ª variável e, em caso de ter linhas com o mesmo valor na 1ª variável, ordena estas linhas de mesmo valor de acordo com a 2ª variável
- Para usar a ordem decrescente, temos a função `desc()`

```r
starwars2 = arrange(starwars1, height, desc(mass))
starwars2
```

```
## # A tibble: 31 × 14
##    name        height  mass hair_…¹ skin_…² eye_c…³ birth…⁴ sex   gender homew…⁵
##    <chr>        <int> <dbl> <chr>   <chr>   <chr>     <dbl> <chr> <chr>  <chr>  
##  1 Leia Organa    150    49 brown   light   brown        19 fema… femin… Aldera…
##  2 Mon Mothma     150    NA auburn  fair    blue         48 fema… femin… Chandr…
##  3 Cordé          157    NA brown   light   brown        NA fema… femin… Naboo  
##  4 Shmi Skywa…    163    NA black   fair    brown        72 fema… femin… Tatooi…
##  5 Beru White…    165    75 brown   light   blue         47 fema… femin… Tatooi…
##  6 Padmé Amid…    165    45 brown   light   brown        46 fema… femin… Naboo  
##  7 Dormé          165    NA brown   light   brown        NA fema… femin… Naboo  
##  8 Jocasta Nu     167    NA white   fair    blue         NA fema… femin… Corusc…
##  9 Wedge Anti…    170    77 brown   fair    hazel        21 male  mascu… Corell…
## 10 Palpatine      170    75 grey    pale    yellow       82 male  mascu… Naboo  
## # … with 21 more rows, 4 more variables: species <chr>, films <list>,
## #   vehicles <list>, starships <list>, and abbreviated variable names
## #   ¹​hair_color, ²​skin_color, ³​eye_color, ⁴​birth_year, ⁵​homeworld
```
…
```r
starwars3 = select(starwars2, name:eye_color, sex:species)
# equivalente: select(starwars2, -birth_year, -c(films:starships))
starwars3
```

```
## # A tibble: 31 × 10
##    name        height  mass hair_…¹ skin_…² eye_c…³ sex   gender homew…⁴ species
##    <chr>        <int> <dbl> <chr>   <chr>   <chr>   <chr> <chr>  <chr>   <chr>  
##  1 Leia Organa    150    49 brown   light   brown   fema… femin… Aldera… Human  
##  2 Mon Mothma     150    NA auburn  fair    blue    fema… femin… Chandr… Human  
##  3 Cordé          157    NA brown   light   brown   fema… femin… Naboo   Human  
##  4 Shmi Skywa…    163    NA black   fair    brown   fema… femin… Tatooi… Human  
##  5 Beru White…    165    75 brown   light   blue    fema… femin… Tatooi… Human  
##  6 Padmé Amid…    165    45 brown   light   brown   fema… femin… Naboo   Human  
##  7 Dormé          165    NA brown   light   brown   fema… femin… Naboo   Human  
##  8 Jocasta Nu     167    NA white   fair    blue    fema… femin… Corusc… Human  
##  9 Wedge Anti…    170    77 brown   fair    hazel   male  mascu… Corell… Human  
## 10 Palpatine      170    75 grey    pale    yellow  male  mascu… Naboo   Human  
## # … with 21 more rows, and abbreviated variable names ¹​hair_color, ²​skin_color,
## #   ³​eye_color, ⁴​homeworld
```
…
.data: A data frame, data frame extension (e.g. a tibble), or a lazy data frame (e.g. from dbplyr or dtplyr).
...	: For rename(): <tidy-select> Use new_name = old_name to rename selected variables.
```


```r
starwars4 = rename(starwars3,
                haircolor = hair_color,
                skincolor = skin_color, 
                eyecolor = eye_color)
starwars4
```

```
## # A tibble: 31 × 10
##    name        height  mass hairc…¹ skinc…² eyeco…³ sex   gender homew…⁴ species
##    <chr>        <int> <dbl> <chr>   <chr>   <chr>   <chr> <chr>  <chr>   <chr>  
##  1 Leia Organa    150    49 brown   light   brown   fema… femin… Aldera… Human  
##  2 Mon Mothma     150    NA auburn  fair    blue    fema… femin… Chandr… Human  
##  3 Cordé          157    NA brown   light   brown   fema… femin… Naboo   Human  
##  4 Shmi Skywa…    163    NA black   fair    brown   fema… femin… Tatooi… Human  
##  5 Beru White…    165    75 brown   light   blue    fema… femin… Tatooi… Human  
##  6 Padmé Amid…    165    45 brown   light   brown   fema… femin… Naboo   Human  
##  7 Dormé          165    NA brown   light   brown   fema… femin… Naboo   Human  
##  8 Jocasta Nu     167    NA white   fair    blue    fema… femin… Corusc… Human  
##  9 Wedge Anti…    170    77 brown   fair    hazel   male  mascu… Corell… Human  
## 10 Palpatine      170    75 grey    pale    yellow  male  mascu… Naboo   Human  
## # … with 21 more rows, and abbreviated variable names ¹​haircolor, ²​skincolor,
## #   ³​eyecolor, ⁴​homeworld
```
…
```r
starwars5 = mutate(starwars4,
                height = height/100, # transf cm p/ metro
                BMI = mass / height^2,
                dummy = 1 # se não for vetor, tudo fica igual
                )
starwars5 = select(starwars5, BMI, dummy, everything()) # facilitar
starwars5
```

```
## # A tibble: 31 × 12
##      BMI dummy name    height  mass hairc…¹ skinc…² eyeco…³ sex   gender homew…⁴
##    <dbl> <dbl> <chr>    <dbl> <dbl> <chr>   <chr>   <chr>   <chr> <chr>  <chr>  
##  1  21.8     1 Leia O…   1.5     49 brown   light   brown   fema… femin… Aldera…
##  2  NA       1 Mon Mo…   1.5     NA auburn  fair    blue    fema… femin… Chandr…
##  3  NA       1 Cordé     1.57    NA brown   light   brown   fema… femin… Naboo  
##  4  NA       1 Shmi S…   1.63    NA black   fair    brown   fema… femin… Tatooi…
##  5  27.5     1 Beru W…   1.65    75 brown   light   blue    fema… femin… Tatooi…
##  6  16.5     1 Padmé …   1.65    45 brown   light   brown   fema… femin… Naboo  
##  7  NA       1 Dormé     1.65    NA brown   light   brown   fema… femin… Naboo  
##  8  NA       1 Jocast…   1.67    NA white   fair    blue    fema… femin… Corusc…
##  9  26.6     1 Wedge …   1.7     77 brown   fair    hazel   male  mascu… Corell…
## 10  26.0     1 Palpat…   1.7     75 grey    pale    yellow  male  mascu… Naboo  
## # … with 21 more rows, 1 more variable: species <chr>, and abbreviated variable
## #   names ¹​haircolor, ²​skincolor, ³​eyecolor, ⁴​homeworld
```
…
```
## # A tibble: 31 × 12
##      BMI dummy name    height  mass hairc…¹ skinc…² eyeco…³ sex   gender homew…⁴
##    <dbl> <dbl> <chr>    <dbl> <dbl> <chr>   <chr>   <chr>   <chr> <chr>  <chr>  
##  1  21.8     1 Leia O…   1.5     49 brown   light   brown   fema… femin… Aldera…
##  2  NA       1 Mon Mo…   1.5     NA auburn  fair    blue    fema… femin… Chandr…
##  3  NA       1 Cordé     1.57    NA brown   light   brown   fema… femin… Naboo  
##  4  NA       1 Shmi S…   1.63    NA black   fair    brown   fema… femin… Tatooi…
##  5  27.5     1 Beru W…   1.65    75 brown   light   blue    fema… femin… Tatooi…
##  6  16.5     1 Padmé …   1.65    45 brown   light   brown   fema… femin… Naboo  
##  7  NA       1 Dormé     1.65    NA brown   light   brown   fema… femin… Naboo  
##  8  NA       1 Jocast…   1.67    NA white   fair    blue    fema… femin… Corusc…
##  9  26.6     1 Wedge …   1.7     77 brown   fair    hazel   male  mascu… Corell…
## 10  26.0     1 Palpat…   1.7     75 grey    pale    yellow  male  mascu… Naboo  
## # … with 21 more rows, 1 more variable: species <chr>, and abbreviated variable
## #   names ¹​haircolor, ²​skincolor, ³​eyecolor, ⁴​homeworld
```
…
```
## # A tibble: 31 × 12
##      BMI dummy name    height  mass hairc…¹ skinc…² eyeco…³ sex   gender homew…⁴
##    <dbl> <dbl> <chr>    <dbl> <dbl> <chr>   <chr>   <chr>   <chr> <chr>  <chr>  
##  1  21.8     1 Leia O…   1.5     49 brown   light   brown   fema… femin… Aldera…
##  2  NA       1 Mon Mo…   1.5     NA auburn  fair    blue    fema… femin… Chandr…
##  3  NA       1 Cordé     1.57    NA brown   light   brown   fema… femin… Naboo  
##  4  NA       1 Shmi S…   1.63    NA black   fair    brown   fema… femin… Tatooi…
##  5  27.5     1 Beru W…   1.65    75 brown   light   blue    fema… femin… Tatooi…
##  6  16.5     1 Padmé …   1.65    45 brown   light   brown   fema… femin… Naboo  
##  7  NA       1 Dormé     1.65    NA brown   light   brown   fema… femin… Naboo  
##  8  NA       1 Jocast…   1.67    NA white   fair    blue    fema… femin… Corusc…
##  9  26.6     1 Wedge …   1.7     77 brown   fair    hazel   male  mascu… Corell…
## 10  26.0     1 Palpat…   1.7     75 grey    pale    yellow  male  mascu… Naboo  
## # … with 21 more rows, 1 more variable: species <chr>, and abbreviated variable
## #   names ¹​haircolor, ²​skincolor, ³​eyecolor, ⁴​homeworld
```
…
```
## `summarise()` has grouped output by 'sex'. You can override using the `.groups`
## argument.
```

```
## # A tibble: 23 × 5
## # Groups:   sex [5]
##    sex            hair_color    n_obs mean_height mean_mass
##    <chr>          <chr>         <int>       <dbl>     <dbl>
##  1 female         auburn            1        150      NaN  
##  2 female         black             3        166.      53.1
##  3 female         blonde            1        168       55  
##  4 female         brown             6        160.      56.3
##  5 female         none              4        188.      54  
##  6 female         white             1        167      NaN  
##  7 hermaphroditic <NA>              1        175     1358  
##  8 male           auburn, grey      1        180      NaN  
##  9 male           auburn, white     1        182       77  
## 10 male           black             9        176.      81.0
## # … with 13 more rows
```
…
